<?xml version="1.0" encoding="UTF-8"?>
<session version="1.0">
<refactoring accessors="true" comment="Delete element from project &apos;Day25_dec2_upcasting_downcasting&apos;&#x0D;&#x0A;- Original project: &apos;Day25_dec2_upcasting_downcasting&apos;&#x0D;&#x0A;- Original element: &apos;automobileexample.RunnerVehicle.java&apos;" description="Delete element" element1="/src&lt;automobileexample{RunnerVehicle.java" elements="1" flags="589830" id="org.eclipse.jdt.ui.delete" resources="0" stamp="1670175945666" subPackages="false" version="1.0"/>
</session>