<?xml version="1.0" encoding="UTF-8"?>
<session version="1.0">
<refactoring accessors="true" comment="Delete element from project &apos;Day7_nov08_switch_loops&apos;&#x0D;&#x0A;- Original project: &apos;Day7_nov08_switch_loops&apos;&#x0D;&#x0A;- Original element: &apos;Day7_nov08_switch_loops/src/loops&apos;" description="Delete element" element1="/src&lt;loops" elements="1" flags="589830" id="org.eclipse.jdt.ui.delete" resources="0" stamp="1667878308814" subPackages="false" version="1.0"/>
</session>