<?xml version="1.0" encoding="UTF-8"?>
<session version="1.0">
<refactoring comment="Copy package &apos;automobileexample&apos; to &apos;Day25_dec2_upcasting_downcasting/src&apos;&#x0D;&#x0A;- Original project: &apos;Day19_nov24_inheritance&apos;&#x0D;&#x0A;- Destination element: &apos;Day25_dec2_upcasting_downcasting/src&apos;&#x0D;&#x0A;- Original element: &apos;Day19_nov24_inheritance/src/automobileexample&apos;" description="Copy package" destination="=Day25_dec2_upcasting_downcasting/src" element1="/src&lt;automobileexample" flags="589830" fragments="1" id="org.eclipse.jdt.ui.copy" policy="org.eclipse.jdt.ui.copyPackages" stamp="1670175885483" version="1.0"/>
</session>