<?xml version="1.0" encoding="UTF-8"?>
<session version="1.0">
<refactoring comment="Rename compilation unit &apos;Vowels.java&apos; to &apos;VowelsExample.java&apos;&#x0D;&#x0A;- Original project: &apos;Day32_dec13_arrays&apos;&#x0D;&#x0A;- Original element: &apos;Vowels.java&apos;&#x0D;&#x0A;- Renamed element: &apos;VowelsExample.java&apos;" description="Rename compilation unit &apos;Vowels.java&apos;" flags="2" id="org.eclipse.jdt.ui.rename.compilationunit" input="/src&lt;{Vowels.java" name="VowelsExample.java" references="false" stamp="1670900399346" version="1.0"/>
</session>