<?xml version="1.0" encoding="UTF-8"?>
<session version="1.0">
<refactoring comment="Rename type &apos;SimpleInterest&apos; to &apos;WesternUnion&apos;&#x0D;&#x0A;- Original project: &apos;Day11_nov14_methods&apos;&#x0D;&#x0A;- Original element: &apos;SimpleInterest&apos;&#x0D;&#x0A;- Renamed element: &apos;WesternUnion&apos;&#x0D;&#x0A;- Update references to refactored element&#x0D;&#x0A;- Update textual occurrences in comments and strings" description="Rename type &apos;SimpleInterest&apos;" flags="589830" id="org.eclipse.jdt.ui.rename.type" input="/src&lt;{SimpleInterest.java[SimpleInterest" matchStrategy="1" name="WesternUnion" qualified="false" references="true" similarDeclarations="false" stamp="1668395984226" textual="false" version="1.0"/>
</session>