<?xml version="1.0" encoding="UTF-8"?>
<session version="1.0">
<refactoring comment="Delete resource &apos;Checking Proograms&apos;" deleteContents="false" description="Delete resource &apos;Checking Proograms&apos;" element1="/Checking Proograms" flags="7" id="org.eclipse.ltk.core.refactoring.delete.resources" resources="1" stamp="1672316718244"/>
</session>