<?xml version="1.0" encoding="UTF-8"?>
<session version="1.0">
<refactoring comment="Rename package &apos;weapon&apos; to &apos;weaponexample&apos;&#x0D;&#x0A;- Original project: &apos;Day20_nov25_inheritance_chaining&apos;&#x0D;&#x0A;- Original element: &apos;Day20_nov25_inheritance_chaining/src/weapon&apos;&#x0D;&#x0A;- Renamed element: &apos;Day20_nov25_inheritance_chaining/src/weaponexample&apos;&#x0D;&#x0A;- Update references to refactored element&#x0D;&#x0A;- Update textual occurrences in comments and strings" description="Rename package &apos;weapon&apos;" flags="589830" hierarchical="false" id="org.eclipse.jdt.ui.rename.package" input="/src&lt;weapon" name="weaponexample" qualified="false" references="true" stamp="1669361980067" textual="false" version="1.0"/>
</session>