<?xml version="1.0" encoding="UTF-8"?>
<session version="1.0">
<refactoring comment="Rename compilation unit &apos;ColorCollection.java&apos; to &apos;IteratorOnCollectionSecondWay.java&apos;&#x0D;&#x0A;- Original project: &apos;Day39_dec22_collections_set&apos;&#x0D;&#x0A;- Original element: &apos;ColorCollection.java&apos;&#x0D;&#x0A;- Renamed element: &apos;IteratorOnCollectionSecondWay.java&apos;" description="Rename compilation unit &apos;ColorCollection.java&apos;" flags="2" id="org.eclipse.jdt.ui.rename.compilationunit" input="/src&lt;{ColorCollection.java" name="IteratorOnCollectionSecondWay.java" references="false" stamp="1671964813423" version="1.0"/>
</session>